"_id","session","mesh_heading_list"
"58c3eed3ebcda712a843cb01","0","Genome, Plant, *Models, Biological, *Plants"
"58c3eed3ebcda712a843cb02","0","Biocompatible Materials, *Fibroblasts, *Oxygen, *Polyesters, *Polyethylene Glycols, *Water"
"58c3eed3ebcda712a843cb04","0","Heparitin Sulfate, *Muscle, Smooth, Vascular, *Platelet-Derived Growth Factor, *Receptors, Interleukin-1"
"58c3eed3ebcda712a843cb05","1","Adaptor Protein Complex 2, *Bone Morphogenetic Protein Receptors, Type I, *Bone Morphogenetic Protein Receptors, Type II, *Cell Membrane, *Clathrin-Coated Vesicles"
"58c3eed3ebcda712a843cb06","1","Bone Morphogenetic Protein Receptors, Type I, *Casein Kinase II, *Osteogenesis, *Peptides"
"58c3eed3ebcda712a843cb07","1","Adaptor Protein Complex 2, *Bone Morphogenetic Protein Receptors, Type I, *Bone Morphogenetic Protein Receptors, Type II, *Cell Membrane, *Clathrin-Coated Vesicles"
"58c3eed3ebcda712a843cb08","1","Osteoarthritis, *Osteogenesis, *Pentosyltransferases, *Wounds and Injuries"
"58c3eed3ebcda712a843cb09","1","Cell Differentiation, *Chondrocytes, *Down-Regulation, *Ribosomal Proteins, *Transforming Growth Factor beta"
"58c3eed3ebcda712a843cb0a","1","Calcitriol, *Calcium, *Calcium Channels, *Gene Expression Regulation, *Osteoblasts"
"58c3eed3ebcda712a843cb0b","1","Cell Movement, *DNA-Binding Proteins, *Drosophila, *Drosophila Proteins, *Trachea, *Transcription Factors"
"58c3eed3ebcda712a843cb0c","1","Cell Nucleus, *Drosophila Proteins, *Drosophila melanogaster, *Microfilament Proteins, *Microtubule-Associated Proteins, *Muscle Proteins"
"58c3eed3ebcda712a843cb0d","1","Apoptosis, *Drosophila Proteins, *Inhibitor of Apoptosis Proteins, *Neuroglia, *Nuclear Proteins, *RNA-Binding Proteins"
"58c3eed3ebcda712a843cb11","1","Algorithms, *Mouth, *Pharmaceutical Preparations"
"58c3eed3ebcda712a843cb16","1","Genetic Engineering, *Light, *Neurobiology, *Zebrafish"
"58c3eed3ebcda712a843cb17","1","Cerebrospinal Fluid, *Neurons, *Spinal Cord"
"58c3eed3ebcda712a843cb18","1","Cerebrospinal Fluid, *Neurons, *Peptide Fragments, *Rhombencephalon, *Spinal Cord, *Urotensins, *Zebrafish"
"58c3eed3ebcda712a843cb19","1","Motor Activity, *Neural Inhibition, *Spinal Cord"
"58c3eed3ebcda712a843cb1b","1","GABAergic Neurons, *Locomotion, *Sensory Receptor Cells, *Zebrafish"
"58c3eed3ebcda712a843cb1c","1","Connectome, *Drosophila, *Models, Neurological, *Motor Neurons, *Nerve Net, *Synapses"
"58c3eed3ebcda712a843cb1d","1","Aging, *MicroRNAs, *Stem Cells"
"58c3eed3ebcda712a843cb1e","1","Carcinoma, Lewis Lung, *Genes, Transgenic, Suicide, *Genetic Therapy, *Interleukin-12, *Promoter Regions, Genetic"
"58c3eed3ebcda712a843cb1f","1","Carcinoma, Lewis Lung, *Genes, Transgenic, Suicide, *Genetic Therapy, *Interleukin-12, *Promoter Regions, Genetic"
"58c3eed3ebcda712a843cb20","1","Aging, *Amyotrophic Lateral Sclerosis, *Mutation, *RNA-Binding Protein FUS"
"58c3eed3ebcda712a843cb21","1","Amino Acid Transport Systems, *Molecular Chaperones, *Prions, *Saccharomyces cerevisiae, *Saccharomyces cerevisiae Proteins"
"58c3eed3ebcda712a843cb22","1","Amino Acid Transport Systems, *Molecular Chaperones, *Prions, *Saccharomyces cerevisiae, *Saccharomyces cerevisiae Proteins"
"58c3eed3ebcda712a843cb23","1","DNA, Single-Stranded, *Nucleotide Motifs, *Oligodeoxyribonucleotides"
"58c3eed3ebcda712a843cb24","1","Caenorhabditis elegans, *Centrosome, *Microtubules, *Mitosis, *Mutation, *Spindle Apparatus, *Tubulin"
"58c3eed3ebcda712a843cb26","2","Candida albicans, *Epithelial Cells, *Interferon-gamma, *Interleukin-18, *Lipopolysaccharides, *Mouth Mucosa"
"58c3eed3ebcda712a843cb27","2","Genes, myc, *Induced Pluripotent Stem Cells, *MicroRNAs"
"58c3eed3ebcda712a843cb28","2","Gene Deletion, *Mutagenesis, Insertional, *Peptidyl-Dipeptidase A, *Vesico-Ureteral Reflux"
"58c3eed3ebcda712a843cb2a","2","Carcinoma, Lewis Lung, *Genes, Transgenic, Suicide, *Genetic Therapy, *Interleukin-12, *Promoter Regions, Genetic"
"58c3eed3ebcda712a843cb2b","2","Zinc Oxide"
"58c3eed3ebcda712a843cb2d","2","Cell Adhesion Molecules, Neuronal, *Drosophila melanogaster, *Nerve Tissue Proteins, *Neuromuscular Junction, *Synapses"
"58c3eed3ebcda712a843cb2e","2","Axons, *Neurites, *Neuropil"
"58c3eed3ebcda712a843cb2f","2","Colorectal Neoplasms, *Genomic Imprinting, *Insulin-Like Growth Factor II"
"58c3eed3ebcda712a843cb31","2","Nanotubes, Carbon, *Nerve Regeneration, *Olfactory Bulb, *Peripheral Nerves, *Recovery of Function"
"58c3eed3ebcda712a843cb32","2","DNA, *Drug Design, *Genes, p53"
"58c3eed3ebcda712a843cb33","2","Soil Microbiology, *Staphylococcaceae, *Tellurium"
"58c3eed3ebcda712a843cb34","2","Blood Coagulation, *Blood Component Transfusion, *Blood Platelets, *Cell-Derived Microparticles"
"58c3eed3ebcda712a843cb35","2","Oils"
"58c3eed3ebcda712a843cb36","3","Protein Conformation, *Protein Structure, Secondary"
"58c3eed3ebcda712a843cb37","3","Amino Acids, *Leukocyte Elastase, *Shigella flexneri, *Virulence Factors"
"58c3eed3ebcda712a843cb38","3","Electrophoresis, Polyacrylamide Gel, *Proteasome Endopeptidase Complex, *Saccharomyces cerevisiae Proteins"
"58c3eed3ebcda712a843cb39","3","DNA-Binding Proteins, *Leukemia, *Proto-Oncogene Proteins, *Transcription Factors, *Translocation, Genetic"
"58c3eed3ebcda712a843cb3a","3","Capsaicin, *Capsicum, *Genes, Plant, *Odorants, *Sequence Deletion"
"58c3eed3ebcda712a843cb3c","3","Antigens, Neoplasm, *DNA, *DNA Topoisomerases, Type II, *DNA-Binding Proteins, *Quinolones, *Streptococcus pneumoniae"
"58c3eed3ebcda712a843cb3d","3","Anti-Infective Agents, *DNA Topoisomerases, Type II, *Fluoroquinolones, *Naphthyridines, *Streptococcus pneumoniae"
"58c3eed3ebcda712a843cb3e","3","DNA Topoisomerase IV, *Quinolones, *Streptococcus pneumoniae"
"58c3eed3ebcda712a843cb3f","3","DNA, *DNA Topoisomerase IV"
"58c3eed3ebcda712a843cb40","3","Bacterial Proteins, *DNA Topoisomerase IV, *Klebsiella pneumoniae, *Quinolones, *Streptococcus pneumoniae"
"58c3eed3ebcda712a843cb41","3","DNA Topoisomerase IV, *Quinolones, *Streptococcus pneumoniae"
"58c3eed3ebcda712a843cb42","4","Acrylic Resins, *DNA, *Electrophoresis, Polyacrylamide Gel"
"58c3eed3ebcda712a843cb43","4","Escherichia coli, *Protein Processing, Post-Translational, *Synthetic Biology, *Ubiquitin, *Ubiquitin-Protein Ligase Complexes, *Ubiquitination"
"58c3eed3ebcda712a843cb44","4","Escherichia coli, *Protein Processing, Post-Translational, *Synthetic Biology, *Ubiquitin, *Ubiquitin-Protein Ligase Complexes, *Ubiquitination"
"58c3eed3ebcda712a843cb45","4","Escherichia coli, *Protein Processing, Post-Translational, *Synthetic Biology, *Ubiquitin, *Ubiquitin-Protein Ligase Complexes, *Ubiquitination"
"58c3eed3ebcda712a843cb47","4","Drug Carriers, *Nanoparticles, *Peptides, *Polyesters"
"58c3eed3ebcda712a843cb48","4","Intracellular Signaling Peptides and Proteins, *Lipid Droplets, *Muscle Proteins, *Muscle, Skeletal, *Spectrum Analysis, Raman"
"58c3eed3ebcda712a843cb49","4","Lipid Metabolism, *Lipids, *Proteins, *Water"
"58c3eed3ebcda712a843cb4a","4","Amino Acid Transport Systems, *Biofilms, *Membrane Glycoproteins, *Saccharomyces cerevisiae, *Saccharomyces cerevisiae Proteins"
"58c3eed3ebcda712a843cb4b","4","Antifungal Agents, *Peptidomimetics, *Saccharomyces cerevisiae, *Zygosaccharomyces"
"58c3eed3ebcda712a843cb4c","4","DNA, Viral, *Genome, Viral, *Herpes Simplex, *Herpesvirus 1, Human, *Mutation, Missense"
"58c3eed3ebcda712a843cb4d","4","DNA, Circular, *DNA, Fungal, *Extrachromosomal Inheritance, *Saccharomyces cerevisiae"
"58c3eed3ebcda712a843cb4e","4","Amino Acid Transport Systems, *Biofilms, *Membrane Glycoproteins, *Saccharomyces cerevisiae, *Saccharomyces cerevisiae Proteins"
"58c3eed3ebcda712a843cb4f","4","Child Abuse, *Epigenesis, Genetic, *Epigenomics, *Prenatal Exposure Delayed Effects, *Stress, Psychological"
"58c3eed3ebcda712a843cb50","4","Eye Proteins, *Gene Expression Regulation, Neoplastic, *Melanoma, *Microphthalmia-Associated Transcription Factor, *Nerve Growth Factors, *Serpins, *Skin Neoplasms"
"58c3eed3ebcda712a843cb51","4","Gene Expression Regulation, Developmental, *Heart, *Heart Defects, Congenital, *Transcription Factors"
"58c3eed3ebcda712a843cb53","4","Antimicrobial Cationic Peptides, *Blood Proteins, *DNA Methylation"
"58c3eed3ebcda712a843cb55","4","ATP-Binding Cassette Transporters, *Disease Resistance, *Escherichia coli, *Gene Expression Regulation, *Genetic Variation"
"58c3eed3ebcda712a843cb56","4","Duodenum, *Escherichia coli, *Escherichia coli Infections, *MicroRNAs"
"58c3eed3ebcda712a843cb57","4","ATP-Binding Cassette Transporters, *Disease Resistance, *Escherichia coli, *Gene Expression Regulation, *Genetic Variation"
"58c3eed3ebcda712a843cb58","4","Adhesins, Escherichia coli, *Enteropathogenic Escherichia coli, *Escherichia coli Infections, *Fimbriae Proteins, *Poultry Diseases, *Sequence Deletion"
"58c3eed3ebcda712a843cb59","4","Poultry"
"58c3eed3ebcda712a843cb5a","4","Poultry"
"58c3eed3ebcda712a843cb5b","4","Adhesins, Escherichia coli, *Enteropathogenic Escherichia coli, *Escherichia coli Infections, *Fimbriae Proteins, *Poultry Diseases, *Sequence Deletion"
"58c3eed3ebcda712a843cb5c","4","Poultry"
"58c3eed3ebcda712a843cb5d","4","Poultry"
"58c3eed3ebcda712a843cb5e","4","ATP-Binding Cassette Transporters, *Disease Resistance, *Escherichia coli, *Gene Expression Regulation, *Genetic Variation"
"58c3eed3ebcda712a843cb5f","5","Adenosine Triphosphate, *Models, Biological, *Oxidative Phosphorylation"
"58c3eed3ebcda712a843cb60","5","Amyotrophic Lateral Sclerosis, *Biomarkers, *Proteomics"
"58c3eed3ebcda712a843cb61","5","Models, Biological, *Pharmacokinetics"
"58c3eed3ebcda712a843cb62","5","Bacterial Proteins, *Chemotaxis, *Cytoplasm, *Escherichia coli, *Membrane Proteins"
"58c3eed3ebcda712a843cb63","6","Antigens, CD1, *Galactosylceramides, *Lymphocyte Activation"
"58c3eed3ebcda712a843cb64","6","Antigen Presentation, *Histocompatibility Antigens Class I, *Peptides"
"58c3eed3ebcda712a843cb65","6","Genetic Engineering, *Software, *Synthetic Biology"
"58c3eed3ebcda712a843cb69","6","Biotechnology, *Computational Biology, *Genetic Engineering, *Programming Languages, *Systems Biology"
"58c3eed3ebcda712a843cb6a","6","Dominance, Cerebral, *Models, Neurological, *Visual Perception"
"58c3eed3ebcda712a843cb6b","6","Algorithms, *Drosophila Proteins, *Drosophila melanogaster, *Gene Expression Profiling, *Gene Expression Regulation, *Oligonucleotide Array Sequence Analysis, *Signal Transduction"
"58c3eed3ebcda712a843cb70","6","Algorithms, *Genome, *Sequence Analysis, DNA"
"58c3eed3ebcda712a843cb72","6","Cell Aging, *Neoplasms"
"58c3eed3ebcda712a843cb73","6","Cactaceae, *Models, Molecular, *Saponins"
"58c3eed3ebcda712a843cb74","6","Fibrinolytic Agents, *Ilex paraguariensis, *Oleanolic Acid, *Plant Extracts, *Saponins"
"58c3eed3ebcda712a843cb75","6","Anti-Bacterial Agents, *Bacillus, *Bacteriocins"
"58c3eed3ebcda712a843cb76","6","Anti-Bacterial Agents, *Glucosamine, *Streptomyces"
"58c3eed3ebcda712a843cb78","6","GPI-Linked Proteins, *Membrane Glycoproteins, *Membrane Microdomains, *Protozoan Proteins, *Trypanosoma brucei brucei"
"58c3eed3ebcda712a843cb7c","6","Drug Delivery Systems, *Osteoporosis"
"58c3eed3ebcda712a843cb7d","6","Adaptation, Physiological, *Models, Biological, *Trypanosoma cruzi"
"58c3eed3ebcda712a843cb82","7","Angiography, *Ankle Brachial Index, *Arterial Occlusive Diseases, *Oscillometry, *Peripheral Arterial Disease, *Tomography, X-Ray Computed"
"58c3eed3ebcda712a843cb83","7","Alanine, *Calcium, *Lanthanum, *Models, Chemical, *Organometallic Compounds, *Yttrium"
"58c3eed3ebcda712a843cb85","7","DNA Damage, *Skin, *Sunlight, *Sunscreening Agents"
"58c3eed3ebcda712a843cb86","7","Biocompatible Materials, *Blood Vessel Prosthesis, *Polytetrafluoroethylene"
"58c3eed3ebcda712a843cb87","7","Chelating Agents, *Contrast Media, *Disulfides, *Gadolinium, *Magnetic Phenomena, *Magnetic Resonance Imaging, *Molybdenum, *Nanostructures"
"58c3eed3ebcda712a843cb88","7","Drug Carriers, *Drug Delivery Systems, *Macrophages, *Phagocytosis, *Polymers"
