[{
    "session":0,
    "mesh_heading_list":[
        "Biocompatible Materials",
        "Fibroblasts",
        "Oxygen",
        "Polyesters",
        "Polyethylene Glycols",
        "Water"
    ],
    "_id":"58c3eed3ebcda712a843cb02"
},{
    "session":1,
    "mesh_heading_list":[
        "Adaptor Protein Complex 2",
        "Bone Morphogenetic Protein Receptors, Type I",
        "Bone Morphogenetic Protein Receptors, Type II",
        "Cell Membrane",
        "Clathrin-Coated Vesicles"
    ],
    "_id":"58c3eed3ebcda712a843cb05"
},{
    "session":1,
    "mesh_heading_list":[
        "Osteoarthritis",
        "Osteogenesis",
        "Pentosyltransferases",
        "Wounds and Injuries"
    ],
    "_id":"58c3eed3ebcda712a843cb08"
},{
    "session":1,
    "mesh_heading_list":[
        "Cell Differentiation",
        "Chondrocytes",
        "Down-Regulation",
        "Ribosomal Proteins",
        "Transforming Growth Factor beta"
    ],
    "_id":"58c3eed3ebcda712a843cb09"
},{
    "session":1,
    "mesh_heading_list":[
        "Cell Movement",
        "DNA-Binding Proteins",
        "Drosophila",
        "Drosophila Proteins",
        "Trachea",
        "Transcription Factors"
    ],
    "_id":"58c3eed3ebcda712a843cb0b"
},{
    "session":1,
    "mesh_heading_list":[
        "Genetic Engineering",
        "Light",
        "Neurobiology",
        "Zebrafish"
    ],
    "_id":"58c3eed3ebcda712a843cb16"
},{
    "session":1,
    "mesh_heading_list":[
        "Cerebrospinal Fluid",
        "Neurons",
        "Spinal Cord"
    ],
    "_id":"58c3eed3ebcda712a843cb17"
},{
    "session":1,
    "mesh_heading_list":[
        "Cerebrospinal Fluid",
        "Neurons",
        "Peptide Fragments",
        "Rhombencephalon",
        "Spinal Cord",
        "Urotensins",
        "Zebrafish"
    ],
    "_id":"58c3eed3ebcda712a843cb18"
},{
    "session":1,
    "mesh_heading_list":[
        "Connectome",
        "Drosophila",
        "Models, Neurological",
        "Motor Neurons",
        "Nerve Net",
        "Synapses"
    ],
    "_id":"58c3eed3ebcda712a843cb1c"
},{
    "session":1,
    "mesh_heading_list":[
        "Aging",
        "MicroRNAs",
        "Stem Cells"
    ],
    "_id":"58c3eed3ebcda712a843cb1d"
},{
    "session":1,
    "mesh_heading_list":[
        "Carcinoma, Lewis Lung",
        "Genes, Transgenic, Suicide",
        "Genetic Therapy",
        "Interleukin-12",
        "Promoter Regions, Genetic"
    ],
    "_id":"58c3eed3ebcda712a843cb1f"
},{
    "session":2,
    "mesh_heading_list":[
        "Genes, myc",
        "Induced Pluripotent Stem Cells",
        "MicroRNAs"
    ],
    "_id":"58c3eed3ebcda712a843cb27"
},{
    "session":2,
    "mesh_heading_list":[
        "Gene Deletion",
        "Mutagenesis, Insertional",
        "Peptidyl-Dipeptidase A",
        "Vesico-Ureteral Reflux"
    ],
    "_id":"58c3eed3ebcda712a843cb28"
},{
    "session":2,
    "mesh_heading_list":[
        "Carcinoma, Lewis Lung",
        "Genes, Transgenic, Suicide",
        "Genetic Therapy",
        "Interleukin-12",
        "Promoter Regions, Genetic"
    ],
    "_id":"58c3eed3ebcda712a843cb2a"
},{
    "session":2,
    "mesh_heading_list":[
        "Zinc Oxide"
    ],
    "_id":"58c3eed3ebcda712a843cb2b"
},{
    "session":2,
    "mesh_heading_list":[
        "Axons",
        "Neurites",
        "Neuropil"
    ],
    "_id":"58c3eed3ebcda712a843cb2e"
},{
    "session":2,
    "mesh_heading_list":[
        "Nanotubes, Carbon",
        "Nerve Regeneration",
        "Olfactory Bulb",
        "Peripheral Nerves",
        "Recovery of Function"
    ],
    "_id":"58c3eed3ebcda712a843cb31"
},{
    "session":3,
    "mesh_heading_list":[
        "Capsaicin",
        "Capsicum",
        "Genes, Plant",
        "Odorants",
        "Sequence Deletion"
    ],
    "_id":"58c3eed3ebcda712a843cb3a"
},{
    "session":3,
    "mesh_heading_list":[
        "Antigens, Neoplasm",
        "DNA",
        "DNA Topoisomerases, Type II",
        "DNA-Binding Proteins",
        "Quinolones",
        "Streptococcus pneumoniae"
    ],
    "_id":"58c3eed3ebcda712a843cb3c"
},{
    "session":3,
    "mesh_heading_list":[
        "DNA Topoisomerase IV",
        "Quinolones",
        "Streptococcus pneumoniae"
    ],
    "_id":"58c3eed3ebcda712a843cb3e"
},{
    "session":4,
    "mesh_heading_list":[
        "Acrylic Resins",
        "DNA",
        "Electrophoresis, Polyacrylamide Gel"
    ],
    "_id":"58c3eed3ebcda712a843cb42"
},{
    "session":4,
    "mesh_heading_list":[
        "Intracellular Signaling Peptides and Proteins",
        "Lipid Droplets",
        "Muscle Proteins",
        "Muscle, Skeletal",
        "Spectrum Analysis, Raman"
    ],
    "_id":"58c3eed3ebcda712a843cb48"
},{
    "session":4,
    "mesh_heading_list":[
        "Amino Acid Transport Systems",
        "Biofilms",
        "Membrane Glycoproteins",
        "Saccharomyces cerevisiae",
        "Saccharomyces cerevisiae Proteins"
    ],
    "_id":"58c3eed3ebcda712a843cb4a"
},{
    "session":4,
    "mesh_heading_list":[
        "Child Abuse",
        "Epigenesis, Genetic",
        "Epigenomics",
        "Prenatal Exposure Delayed Effects",
        "Stress, Psychological"
    ],
    "_id":"58c3eed3ebcda712a843cb4f"
},{
    "session":4,
    "mesh_heading_list":[
        "Duodenum",
        "Escherichia coli",
        "Escherichia coli Infections",
        "MicroRNAs"
    ],
    "_id":"58c3eed3ebcda712a843cb56"
},{
    "session":4,
    "mesh_heading_list":[
        "Poultry"
    ],
    "_id":"58c3eed3ebcda712a843cb5a"
},{
    "session":4,
    "mesh_heading_list":[
        "Adhesins, Escherichia coli",
        "Enteropathogenic Escherichia coli",
        "Escherichia coli Infections",
        "Fimbriae Proteins",
        "Poultry Diseases",
        "Sequence Deletion"
    ],
    "_id":"58c3eed3ebcda712a843cb5b"
},{
    "session":6,
    "mesh_heading_list":[
        "Genetic Engineering",
        "Software",
        "Synthetic Biology"
    ],
    "_id":"58c3eed3ebcda712a843cb65"
},{
    "session":6,
    "mesh_heading_list":[
        "Adaptation, Physiological",
        "Models, Biological",
        "Trypanosoma cruzi"
    ],
    "_id":"58c3eed3ebcda712a843cb7d"
},{
    "session":7,
    "mesh_heading_list":[
        "Alanine",
        "Calcium",
        "Lanthanum",
        "Models, Chemical",
        "Organometallic Compounds",
        "Yttrium"
    ],
    "_id":"58c3eed3ebcda712a843cb83"
},{
    "session":7,
    "mesh_heading_list":[
        "Chelating Agents",
        "Contrast Media",
        "Disulfides",
        "Gadolinium",
        "Magnetic Phenomena",
        "Magnetic Resonance Imaging",
        "Molybdenum",
        "Nanostructures"
    ],
    "_id":"58c3eed3ebcda712a843cb87"
},{
    "session":7,
    "mesh_heading_list":[
        "Drug Carriers",
        "Drug Delivery Systems",
        "Macrophages",
        "Phagocytosis",
        "Polymers"
    ],
    "_id":"58c3eed3ebcda712a843cb88"
}]