[{
    "session":1,
    "mesh_heading_list":[
        "Osteoarthritis",
        "Osteogenesis",
        "Pentosyltransferases",
        "Wounds and Injuries"
    ],
    "_id":"58c3eed3ebcda712a843cb08"
},{
    "session":1,
    "mesh_heading_list":[
        "Cell Differentiation",
        "Chondrocytes",
        "Down-Regulation",
        "Ribosomal Proteins",
        "Transforming Growth Factor beta"
    ],
    "_id":"58c3eed3ebcda712a843cb09"
},{
    "session":1,
    "mesh_heading_list":[
        "Cell Movement",
        "DNA-Binding Proteins",
        "Drosophila",
        "Drosophila Proteins",
        "Trachea",
        "Transcription Factors"
    ],
    "_id":"58c3eed3ebcda712a843cb0b"
},{
    "session":1,
    "mesh_heading_list":[
        "GABAergic Neurons",
        "Locomotion",
        "Sensory Receptor Cells",
        "Zebrafish"
    ],
    "_id":"58c3eed3ebcda712a843cb1b"
},{
    "session":1,
    "mesh_heading_list":[
        "Carcinoma, Lewis Lung",
        "Genes, Transgenic, Suicide",
        "Genetic Therapy",
        "Interleukin-12",
        "Promoter Regions, Genetic"
    ],
    "_id":"58c3eed3ebcda712a843cb1f"
},{
    "session":2,
    "mesh_heading_list":[
        "Genes, myc",
        "Induced Pluripotent Stem Cells",
        "MicroRNAs"
    ],
    "_id":"58c3eed3ebcda712a843cb27"
},{
    "session":2,
    "mesh_heading_list":[
        "Carcinoma, Lewis Lung",
        "Genes, Transgenic, Suicide",
        "Genetic Therapy",
        "Interleukin-12",
        "Promoter Regions, Genetic"
    ],
    "_id":"58c3eed3ebcda712a843cb2a"
},{
    "session":2,
    "mesh_heading_list":[
        "Zinc Oxide"
    ],
    "_id":"58c3eed3ebcda712a843cb2b"
},{
    "session":2,
    "mesh_heading_list":[
        "Colorectal Neoplasms",
        "Genomic Imprinting",
        "Insulin-Like Growth Factor II"
    ],
    "_id":"58c3eed3ebcda712a843cb2f"
},{
    "session":2,
    "mesh_heading_list":[
        "DNA",
        "Drug Design",
        "Genes, p53"
    ],
    "_id":"58c3eed3ebcda712a843cb32"
},{
    "session":3,
    "mesh_heading_list":[
        "Amino Acids",
        "Leukocyte Elastase",
        "Shigella flexneri",
        "Virulence Factors"
    ],
    "_id":"58c3eed3ebcda712a843cb37"
},{
    "session":3,
    "mesh_heading_list":[
        "DNA Topoisomerase IV",
        "Quinolones",
        "Streptococcus pneumoniae"
    ],
    "_id":"58c3eed3ebcda712a843cb3e"
},{
    "session":3,
    "mesh_heading_list":[
        "Bacterial Proteins",
        "DNA Topoisomerase IV",
        "Klebsiella pneumoniae",
        "Quinolones",
        "Streptococcus pneumoniae"
    ],
    "_id":"58c3eed3ebcda712a843cb40"
},{
    "session":4,
    "mesh_heading_list":[
        "Acrylic Resins",
        "DNA",
        "Electrophoresis, Polyacrylamide Gel"
    ],
    "_id":"58c3eed3ebcda712a843cb42"
},{
    "session":4,
    "mesh_heading_list":[
        "Antifungal Agents",
        "Peptidomimetics",
        "Saccharomyces cerevisiae",
        "Zygosaccharomyces"
    ],
    "_id":"58c3eed3ebcda712a843cb4b"
},{
    "session":4,
    "mesh_heading_list":[
        "Amino Acid Transport Systems",
        "Biofilms",
        "Membrane Glycoproteins",
        "Saccharomyces cerevisiae",
        "Saccharomyces cerevisiae Proteins"
    ],
    "_id":"58c3eed3ebcda712a843cb4e"
},{
    "session":4,
    "mesh_heading_list":[
        "ATP-Binding Cassette Transporters",
        "Disease Resistance",
        "Escherichia coli",
        "Gene Expression Regulation",
        "Genetic Variation"
    ],
    "_id":"58c3eed3ebcda712a843cb55"
},{
    "session":4,
    "mesh_heading_list":[
        "Adhesins, Escherichia coli",
        "Enteropathogenic Escherichia coli",
        "Escherichia coli Infections",
        "Fimbriae Proteins",
        "Poultry Diseases",
        "Sequence Deletion"
    ],
    "_id":"58c3eed3ebcda712a843cb58"
},{
    "session":4,
    "mesh_heading_list":[
        "Adhesins, Escherichia coli",
        "Enteropathogenic Escherichia coli",
        "Escherichia coli Infections",
        "Fimbriae Proteins",
        "Poultry Diseases",
        "Sequence Deletion"
    ],
    "_id":"58c3eed3ebcda712a843cb5b"
},{
    "session":4,
    "mesh_heading_list":[
        "Poultry"
    ],
    "_id":"58c3eed3ebcda712a843cb5c"
},{
    "session":4,
    "mesh_heading_list":[
        "ATP-Binding Cassette Transporters",
        "Disease Resistance",
        "Escherichia coli",
        "Gene Expression Regulation",
        "Genetic Variation"
    ],
    "_id":"58c3eed3ebcda712a843cb5e"
},{
    "session":5,
    "mesh_heading_list":[
        "Amyotrophic Lateral Sclerosis",
        "Biomarkers",
        "Proteomics"
    ],
    "_id":"58c3eed3ebcda712a843cb60"
},{
    "session":5,
    "mesh_heading_list":[
        "Bacterial Proteins",
        "Chemotaxis",
        "Cytoplasm",
        "Escherichia coli",
        "Membrane Proteins"
    ],
    "_id":"58c3eed3ebcda712a843cb62"
},{
    "session":6,
    "mesh_heading_list":[
        "Antigens, CD1",
        "Galactosylceramides",
        "Lymphocyte Activation"
    ],
    "_id":"58c3eed3ebcda712a843cb63"
},{
    "session":6,
    "mesh_heading_list":[
        "Genetic Engineering",
        "Software",
        "Synthetic Biology"
    ],
    "_id":"58c3eed3ebcda712a843cb65"
},{
    "session":6,
    "mesh_heading_list":[
        "Algorithms",
        "Drosophila Proteins",
        "Drosophila melanogaster",
        "Gene Expression Profiling",
        "Gene Expression Regulation",
        "Oligonucleotide Array Sequence Analysis",
        "Signal Transduction"
    ],
    "_id":"58c3eed3ebcda712a843cb6b"
},{
    "session":6,
    "mesh_heading_list":[
        "Algorithms",
        "Genome",
        "Sequence Analysis, DNA"
    ],
    "_id":"58c3eed3ebcda712a843cb70"
},{
    "session":6,
    "mesh_heading_list":[
        "Anti-Bacterial Agents",
        "Glucosamine",
        "Streptomyces"
    ],
    "_id":"58c3eed3ebcda712a843cb76"
},{
    "session":6,
    "mesh_heading_list":[
        "GPI-Linked Proteins",
        "Membrane Glycoproteins",
        "Membrane Microdomains",
        "Protozoan Proteins",
        "Trypanosoma brucei brucei"
    ],
    "_id":"58c3eed3ebcda712a843cb78"
},{
    "session":6,
    "mesh_heading_list":[
        "Drug Delivery Systems",
        "Osteoporosis"
    ],
    "_id":"58c3eed3ebcda712a843cb7c"
},{
    "session":6,
    "mesh_heading_list":[
        "Adaptation, Physiological",
        "Models, Biological",
        "Trypanosoma cruzi"
    ],
    "_id":"58c3eed3ebcda712a843cb7d"
},{
    "session":7,
    "mesh_heading_list":[
        "Biocompatible Materials",
        "Blood Vessel Prosthesis",
        "Polytetrafluoroethylene"
    ],
    "_id":"58c3eed3ebcda712a843cb86"
}]