[{
    "_id":"58c3eed3ebcda712a843cb57",
    "mesh_heading_list":[
        "ATP-Binding Cassette Transporters",
        "Disease Resistance",
        "Escherichia coli",
        "Gene Expression Regulation",
        "Genetic Variation"
    ],
    "session":1
},{
    "_id":"58c3eed3ebcda712a843cb0d",
    "mesh_heading_list":[
        "Apoptosis",
        "Drosophila Proteins",
        "Inhibitor of Apoptosis Proteins",
        "Neuroglia",
        "Nuclear Proteins",
        "RNA-Binding Proteins"
    ],
    "session":3
},{
    "_id":"58c3eed3ebcda712a843cb41",
    "mesh_heading_list":[
        "DNA Topoisomerase IV",
        "Quinolones",
        "Streptococcus pneumoniae"
    ],
    "session":2
},{
    "_id":"58c3eed3ebcda712a843cb64",
    "mesh_heading_list":[
        "Antigen Presentation",
        "Histocompatibility Antigens Class I",
        "Peptides"
    ],
    "session":1
},{
    "_id":"58c3eed3ebcda712a843cb88",
    "mesh_heading_list":[
        "Drug Carriers",
        "Drug Delivery Systems",
        "Macrophages",
        "Phagocytosis",
        "Polymers"
    ],
    "session":3
},{
    "_id":"58c3eed3ebcda712a843cb4d",
    "mesh_heading_list":[
        "DNA, Circular",
        "DNA, Fungal",
        "Extrachromosomal Inheritance",
        "Saccharomyces cerevisiae"
    ],
    "session":1
},{
    "_id":"58c3eed3ebcda712a843cb75",
    "mesh_heading_list":[
        "Anti-Bacterial Agents",
        "Bacillus",
        "Bacteriocins"
    ],
    "session":2
},{
    "_id":"58c3eed3ebcda712a843cb82",
    "mesh_heading_list":[
        "Angiography",
        "Ankle Brachial Index",
        "Arterial Occlusive Diseases",
        "Oscillometry",
        "Peripheral Arterial Disease",
        "Tomography, X-Ray Computed"
    ],
    "session":4
},{
    "_id":"58c3eed3ebcda712a843cb58",
    "mesh_heading_list":[
        "Adhesins, Escherichia coli",
        "Enteropathogenic Escherichia coli",
        "Escherichia coli Infections",
        "Fimbriae Proteins",
        "Poultry Diseases",
        "Sequence Deletion"
    ],
    "session":1
},{
    "_id":"58c3eed3ebcda712a843cb1d",
    "mesh_heading_list":[
        "Aging",
        "MicroRNAs",
        "Stem Cells"
    ],
    "session":3
},{
    "_id":"58c3eed3ebcda712a843cb76",
    "mesh_heading_list":[
        "Anti-Bacterial Agents",
        "Glucosamine",
        "Streptomyces"
    ],
    "session":2
},{
    "_id":"58c3eed3ebcda712a843cb72",
    "mesh_heading_list":[
        "Cell Aging",
        "Neoplasms"
    ],
    "session":5
},{
    "_id":"58c3eed3ebcda712a843cb23",
    "mesh_heading_list":[
        "DNA, Single-Stranded",
        "Nucleotide Motifs",
        "Oligodeoxyribonucleotides"
    ],
    "session":1
},{
    "_id":"58c3eed3ebcda712a843cb4b",
    "mesh_heading_list":[
        "Antifungal Agents",
        "Peptidomimetics",
        "Saccharomyces cerevisiae",
        "Zygosaccharomyces"
    ],
    "session":2
},{
    "_id":"58c3eed3ebcda712a843cb4c",
    "mesh_heading_list":[
        "DNA, Viral",
        "Genome, Viral",
        "Herpes Simplex",
        "Herpesvirus 1, Human",
        "Mutation, Missense"
    ],
    "session":1
},{
    "_id":"58c3eed3ebcda712a843cb53",
    "mesh_heading_list":[
        "Antimicrobial Cationic Peptides",
        "Blood Proteins",
        "DNA Methylation"
    ],
    "session":1
},{
    "_id":"58c3eed3ebcda712a843cb7d",
    "mesh_heading_list":[
        "Adaptation, Physiological",
        "Models, Biological",
        "Trypanosoma cruzi"
    ],
    "session":5
},{
    "_id":"58c3eed3ebcda712a843cb24",
    "mesh_heading_list":[
        "Caenorhabditis elegans",
        "Centrosome",
        "Microtubules",
        "Mitosis",
        "Mutation",
        "Spindle Apparatus",
        "Tubulin"
    ],
    "session":3
},{
    "_id":"58c3eed3ebcda712a843cb0b",
    "mesh_heading_list":[
        "Cell Movement",
        "DNA-Binding Proteins",
        "Drosophila",
        "Drosophila Proteins",
        "Trachea",
        "Transcription Factors"
    ],
    "session":3
},{
    "_id":"58c3eed3ebcda712a843cb16",
    "mesh_heading_list":[
        "Genetic Engineering",
        "Light",
        "Neurobiology",
        "Zebrafish"
    ],
    "session":5
},{
    "_id":"58c3eed3ebcda712a843cb45",
    "mesh_heading_list":[
        "Escherichia coli",
        "Protein Processing, Post-Translational",
        "Synthetic Biology",
        "Ubiquitin",
        "Ubiquitin-Protein Ligase Complexes",
        "Ubiquitination"
    ],
    "session":1
},{
    "_id":"58c3eed3ebcda712a843cb44",
    "mesh_heading_list":[
        "Escherichia coli",
        "Protein Processing, Post-Translational",
        "Synthetic Biology",
        "Ubiquitin",
        "Ubiquitin-Protein Ligase Complexes",
        "Ubiquitination"
    ],
    "session":1
},{
    "_id":"58c3eed3ebcda712a843cb59",
    "mesh_heading_list":[
        "Poultry"
    ],
    "session":5
},{
    "_id":"58c3eed3ebcda712a843cb27",
    "mesh_heading_list":[
        "Genes, myc",
        "Induced Pluripotent Stem Cells",
        "MicroRNAs"
    ],
    "session":3
},{
    "_id":"58c3eed3ebcda712a843cb2f",
    "mesh_heading_list":[
        "Colorectal Neoplasms",
        "Genomic Imprinting",
        "Insulin-Like Growth Factor II"
    ],
    "session":1
},{
    "_id":"58c3eed3ebcda712a843cb61",
    "mesh_heading_list":[
        "Models, Biological",
        "Pharmacokinetics"
    ],
    "session":5
},{
    "_id":"58c3eed3ebcda712a843cb6b",
    "mesh_heading_list":[
        "Algorithms",
        "Drosophila Proteins",
        "Drosophila melanogaster",
        "Gene Expression Profiling",
        "Gene Expression Regulation",
        "Oligonucleotide Array Sequence Analysis",
        "Signal Transduction"
    ],
    "session":1
},{
    "_id":"58c3eed3ebcda712a843cb0c",
    "mesh_heading_list":[
        "Cell Nucleus",
        "Drosophila Proteins",
        "Drosophila melanogaster",
        "Microfilament Proteins",
        "Microtubule-Associated Proteins",
        "Muscle Proteins"
    ],
    "session":3
},{
    "_id":"58c3eed3ebcda712a843cb39",
    "mesh_heading_list":[
        "DNA-Binding Proteins",
        "Leukemia",
        "Proto-Oncogene Proteins",
        "Transcription Factors",
        "Translocation, Genetic"
    ],
    "session":1
},{
    "_id":"58c3eed3ebcda712a843cb4a",
    "mesh_heading_list":[
        "Amino Acid Transport Systems",
        "Biofilms",
        "Membrane Glycoproteins",
        "Saccharomyces cerevisiae",
        "Saccharomyces cerevisiae Proteins"
    ],
    "session":1
},{
    "_id":"58c3eed3ebcda712a843cb36",
    "mesh_heading_list":[
        "Protein Conformation",
        "Protein Structure, Secondary"
    ],
    "session":5
},{
    "_id":"58c3eed3ebcda712a843cb37",
    "mesh_heading_list":[
        "Amino Acids",
        "Leukocyte Elastase",
        "Shigella flexneri",
        "Virulence Factors"
    ],
    "session":2
},{
    "_id":"58c3eed3ebcda712a843cb22",
    "mesh_heading_list":[
        "Amino Acid Transport Systems",
        "Molecular Chaperones",
        "Prions",
        "Saccharomyces cerevisiae",
        "Saccharomyces cerevisiae Proteins"
    ],
    "session":2
},{
    "_id":"58c3eed3ebcda712a843cb1f",
    "mesh_heading_list":[
        "Carcinoma, Lewis Lung",
        "Genes, Transgenic, Suicide",
        "Genetic Therapy",
        "Interleukin-12",
        "Promoter Regions, Genetic"
    ],
    "session":1
},{
    "_id":"58c3eed3ebcda712a843cb0a",
    "mesh_heading_list":[
        "Calcitriol",
        "Calcium",
        "Calcium Channels",
        "Gene Expression Regulation",
        "Osteoblasts"
    ],
    "session":3
},{
    "_id":"58c3eed3ebcda712a843cb1c",
    "mesh_heading_list":[
        "Connectome",
        "Drosophila",
        "Models, Neurological",
        "Motor Neurons",
        "Nerve Net",
        "Synapses"
    ],
    "session":0
},{
    "_id":"58c3eed3ebcda712a843cb83",
    "mesh_heading_list":[
        "Alanine",
        "Calcium",
        "Lanthanum",
        "Models, Chemical",
        "Organometallic Compounds",
        "Yttrium"
    ],
    "session":2
},{
    "_id":"58c3eed3ebcda712a843cb69",
    "mesh_heading_list":[
        "Biotechnology",
        "Computational Biology",
        "Genetic Engineering",
        "Programming Languages",
        "Systems Biology"
    ],
    "session":4
},{
    "_id":"58c3eed3ebcda712a843cb01",
    "mesh_heading_list":[
        "Genome, Plant",
        "Models, Biological",
        "Plants"
    ],
    "session":5
},{
    "_id":"58c3eed3ebcda712a843cb65",
    "mesh_heading_list":[
        "Genetic Engineering",
        "Software",
        "Synthetic Biology"
    ],
    "session":4
},{
    "_id":"58c3eed3ebcda712a843cb4e",
    "mesh_heading_list":[
        "Amino Acid Transport Systems",
        "Biofilms",
        "Membrane Glycoproteins",
        "Saccharomyces cerevisiae",
        "Saccharomyces cerevisiae Proteins"
    ],
    "session":1
},{
    "_id":"58c3eed3ebcda712a843cb19",
    "mesh_heading_list":[
        "Motor Activity",
        "Neural Inhibition",
        "Spinal Cord"
    ],
    "session":0
},{
    "_id":"58c3eed3ebcda712a843cb74",
    "mesh_heading_list":[
        "Fibrinolytic Agents",
        "Ilex paraguariensis",
        "Oleanolic Acid",
        "Plant Extracts",
        "Saponins"
    ],
    "session":2
},{
    "_id":"58c3eed3ebcda712a843cb47",
    "mesh_heading_list":[
        "Drug Carriers",
        "Nanoparticles",
        "Peptides",
        "Polyesters"
    ],
    "session":2
},{
    "_id":"58c3eed3ebcda712a843cb08",
    "mesh_heading_list":[
        "Osteoarthritis",
        "Osteogenesis",
        "Pentosyltransferases",
        "Wounds and Injuries"
    ],
    "session":1
},{
    "_id":"58c3eed3ebcda712a843cb78",
    "mesh_heading_list":[
        "GPI-Linked Proteins",
        "Membrane Glycoproteins",
        "Membrane Microdomains",
        "Protozoan Proteins",
        "Trypanosoma brucei brucei"
    ],
    "session":3
},{
    "_id":"58c3eed3ebcda712a843cb5b",
    "mesh_heading_list":[
        "Adhesins, Escherichia coli",
        "Enteropathogenic Escherichia coli",
        "Escherichia coli Infections",
        "Fimbriae Proteins",
        "Poultry Diseases",
        "Sequence Deletion"
    ],
    "session":1
},{
    "_id":"58c3eed3ebcda712a843cb50",
    "mesh_heading_list":[
        "Eye Proteins",
        "Gene Expression Regulation, Neoplastic",
        "Melanoma",
        "Microphthalmia-Associated Transcription Factor",
        "Nerve Growth Factors",
        "Serpins",
        "Skin Neoplasms"
    ],
    "session":1
},{
    "_id":"58c3eed3ebcda712a843cb17",
    "mesh_heading_list":[
        "Cerebrospinal Fluid",
        "Neurons",
        "Spinal Cord"
    ],
    "session":0
},{
    "_id":"58c3eed3ebcda712a843cb34",
    "mesh_heading_list":[
        "Blood Coagulation",
        "Blood Component Transfusion",
        "Blood Platelets",
        "Cell-Derived Microparticles"
    ],
    "session":0
},{
    "_id":"58c3eed3ebcda712a843cb5c",
    "mesh_heading_list":[
        "Poultry"
    ],
    "session":5
},{
    "_id":"58c3eed3ebcda712a843cb48",
    "mesh_heading_list":[
        "Intracellular Signaling Peptides and Proteins",
        "Lipid Droplets",
        "Muscle Proteins",
        "Muscle, Skeletal",
        "Spectrum Analysis, Raman"
    ],
    "session":3
},{
    "_id":"58c3eed3ebcda712a843cb20",
    "mesh_heading_list":[
        "Aging",
        "Amyotrophic Lateral Sclerosis",
        "Mutation",
        "RNA-Binding Protein FUS"
    ],
    "session":1
},{
    "_id":"58c3eed3ebcda712a843cb4f",
    "mesh_heading_list":[
        "Child Abuse",
        "Epigenesis, Genetic",
        "Epigenomics",
        "Prenatal Exposure Delayed Effects",
        "Stress, Psychological"
    ],
    "session":5
},{
    "_id":"58c3eed3ebcda712a843cb09",
    "mesh_heading_list":[
        "Cell Differentiation",
        "Chondrocytes",
        "Down-Regulation",
        "Ribosomal Proteins",
        "Transforming Growth Factor beta"
    ],
    "session":3
},{
    "_id":"58c3eed3ebcda712a843cb1b",
    "mesh_heading_list":[
        "GABAergic Neurons",
        "Locomotion",
        "Sensory Receptor Cells",
        "Zebrafish"
    ],
    "session":0
},{
    "_id":"58c3eed3ebcda712a843cb40",
    "mesh_heading_list":[
        "Bacterial Proteins",
        "DNA Topoisomerase IV",
        "Klebsiella pneumoniae",
        "Quinolones",
        "Streptococcus pneumoniae"
    ],
    "session":2
},{
    "_id":"58c3eed3ebcda712a843cb5a",
    "mesh_heading_list":[
        "Poultry"
    ],
    "session":5
},{
    "_id":"58c3eed3ebcda712a843cb43",
    "mesh_heading_list":[
        "Escherichia coli",
        "Protein Processing, Post-Translational",
        "Synthetic Biology",
        "Ubiquitin",
        "Ubiquitin-Protein Ligase Complexes",
        "Ubiquitination"
    ],
    "session":1
},{
    "_id":"58c3eed3ebcda712a843cb6a",
    "mesh_heading_list":[
        "Dominance, Cerebral",
        "Models, Neurological",
        "Visual Perception"
    ],
    "session":5
},{
    "_id":"58c3eed3ebcda712a843cb7c",
    "mesh_heading_list":[
        "Drug Delivery Systems",
        "Osteoporosis"
    ],
    "session":4
},{
    "_id":"58c3eed3ebcda712a843cb62",
    "mesh_heading_list":[
        "Bacterial Proteins",
        "Chemotaxis",
        "Cytoplasm",
        "Escherichia coli",
        "Membrane Proteins"
    ],
    "session":3
},{
    "_id":"58c3eed3ebcda712a843cb42",
    "mesh_heading_list":[
        "Acrylic Resins",
        "DNA",
        "Electrophoresis, Polyacrylamide Gel"
    ],
    "session":2
},{
    "_id":"58c3eed3ebcda712a843cb2d",
    "mesh_heading_list":[
        "Cell Adhesion Molecules, Neuronal",
        "Drosophila melanogaster",
        "Nerve Tissue Proteins",
        "Neuromuscular Junction",
        "Synapses"
    ],
    "session":3
},{
    "_id":"58c3eed3ebcda712a843cb3f",
    "mesh_heading_list":[
        "DNA",
        "DNA Topoisomerase IV"
    ],
    "session":2
},{
    "_id":"58c3eed3ebcda712a843cb73",
    "mesh_heading_list":[
        "Cactaceae",
        "Models, Molecular",
        "Saponins"
    ],
    "session":2
},{
    "_id":"58c3eed3ebcda712a843cb02",
    "mesh_heading_list":[
        "Biocompatible Materials",
        "Fibroblasts",
        "Oxygen",
        "Polyesters",
        "Polyethylene Glycols",
        "Water"
    ],
    "session":3
},{
    "_id":"58c3eed3ebcda712a843cb85",
    "mesh_heading_list":[
        "DNA Damage",
        "Skin",
        "Sunlight",
        "Sunscreening Agents"
    ],
    "session":3
},{
    "_id":"58c3eed3ebcda712a843cb87",
    "mesh_heading_list":[
        "Chelating Agents",
        "Contrast Media",
        "Disulfides",
        "Gadolinium",
        "Magnetic Phenomena",
        "Magnetic Resonance Imaging",
        "Molybdenum",
        "Nanostructures"
    ],
    "session":1
},{
    "_id":"58c3eed3ebcda712a843cb5e",
    "mesh_heading_list":[
        "ATP-Binding Cassette Transporters",
        "Disease Resistance",
        "Escherichia coli",
        "Gene Expression Regulation",
        "Genetic Variation"
    ],
    "session":1
}]