[{
    "_id":"58c3eed3ebcda712a843cb08",
    "mesh_heading_list":[
        "Osteoarthritis",
        "Osteogenesis",
        "Pentosyltransferases",
        "Wounds and Injuries"
    ],
    "session":3
},{
    "_id":"58c3eed3ebcda712a843cb09",
    "mesh_heading_list":[
        "Cell Differentiation",
        "Chondrocytes",
        "Down-Regulation",
        "Ribosomal Proteins",
        "Transforming Growth Factor beta"
    ],
    "session":3
},{
    "_id":"58c3eed3ebcda712a843cb0b",
    "mesh_heading_list":[
        "Cell Movement",
        "DNA-Binding Proteins",
        "Drosophila",
        "Drosophila Proteins",
        "Trachea",
        "Transcription Factors"
    ],
    "session":3
},{
    "_id":"58c3eed3ebcda712a843cb1b",
    "mesh_heading_list":[
        "GABAergic Neurons",
        "Locomotion",
        "Sensory Receptor Cells",
        "Zebrafish"
    ],
    "session":5
},{
    "_id":"58c3eed3ebcda712a843cb1f",
    "mesh_heading_list":[
        "Carcinoma, Lewis Lung",
        "Genes, Transgenic, Suicide",
        "Genetic Therapy",
        "Interleukin-12",
        "Promoter Regions, Genetic"
    ],
    "session":1
},{
    "_id":"58c3eed3ebcda712a843cb27",
    "mesh_heading_list":[
        "Genes, myc",
        "Induced Pluripotent Stem Cells",
        "MicroRNAs"
    ],
    "session":5
},{
    "_id":"58c3eed3ebcda712a843cb2a",
    "mesh_heading_list":[
        "Carcinoma, Lewis Lung",
        "Genes, Transgenic, Suicide",
        "Genetic Therapy",
        "Interleukin-12",
        "Promoter Regions, Genetic"
    ],
    "session":1
},{
    "_id":"58c3eed3ebcda712a843cb2b",
    "mesh_heading_list":[
        "Zinc Oxide"
    ],
    "session":0
},{
    "_id":"58c3eed3ebcda712a843cb2f",
    "mesh_heading_list":[
        "Colorectal Neoplasms",
        "Genomic Imprinting",
        "Insulin-Like Growth Factor II"
    ],
    "session":3
},{
    "_id":"58c3eed3ebcda712a843cb32",
    "mesh_heading_list":[
        "DNA",
        "Drug Design",
        "Genes, p53"
    ],
    "session":2
},{
    "_id":"58c3eed3ebcda712a843cb37",
    "mesh_heading_list":[
        "Amino Acids",
        "Leukocyte Elastase",
        "Shigella flexneri",
        "Virulence Factors"
    ],
    "session":0
},{
    "_id":"58c3eed3ebcda712a843cb3e",
    "mesh_heading_list":[
        "DNA Topoisomerase IV",
        "Quinolones",
        "Streptococcus pneumoniae"
    ],
    "session":0
},{
    "_id":"58c3eed3ebcda712a843cb40",
    "mesh_heading_list":[
        "Bacterial Proteins",
        "DNA Topoisomerase IV",
        "Klebsiella pneumoniae",
        "Quinolones",
        "Streptococcus pneumoniae"
    ],
    "session":0
},{
    "_id":"58c3eed3ebcda712a843cb42",
    "mesh_heading_list":[
        "Acrylic Resins",
        "DNA",
        "Electrophoresis, Polyacrylamide Gel"
    ],
    "session":2
},{
    "_id":"58c3eed3ebcda712a843cb4b",
    "mesh_heading_list":[
        "Antifungal Agents",
        "Peptidomimetics",
        "Saccharomyces cerevisiae",
        "Zygosaccharomyces"
    ],
    "session":0
},{
    "_id":"58c3eed3ebcda712a843cb4e",
    "mesh_heading_list":[
        "Amino Acid Transport Systems",
        "Biofilms",
        "Membrane Glycoproteins",
        "Saccharomyces cerevisiae",
        "Saccharomyces cerevisiae Proteins"
    ],
    "session":3
},{
    "_id":"58c3eed3ebcda712a843cb55",
    "mesh_heading_list":[
        "ATP-Binding Cassette Transporters",
        "Disease Resistance",
        "Escherichia coli",
        "Gene Expression Regulation",
        "Genetic Variation"
    ],
    "session":3
},{
    "_id":"58c3eed3ebcda712a843cb58",
    "mesh_heading_list":[
        "Adhesins, Escherichia coli",
        "Enteropathogenic Escherichia coli",
        "Escherichia coli Infections",
        "Fimbriae Proteins",
        "Poultry Diseases",
        "Sequence Deletion"
    ],
    "session":3
},{
    "_id":"58c3eed3ebcda712a843cb5b",
    "mesh_heading_list":[
        "Adhesins, Escherichia coli",
        "Enteropathogenic Escherichia coli",
        "Escherichia coli Infections",
        "Fimbriae Proteins",
        "Poultry Diseases",
        "Sequence Deletion"
    ],
    "session":3
},{
    "_id":"58c3eed3ebcda712a843cb5c",
    "mesh_heading_list":[
        "Poultry"
    ],
    "session":5
},{
    "_id":"58c3eed3ebcda712a843cb5e",
    "mesh_heading_list":[
        "ATP-Binding Cassette Transporters",
        "Disease Resistance",
        "Escherichia coli",
        "Gene Expression Regulation",
        "Genetic Variation"
    ],
    "session":3
},{
    "_id":"58c3eed3ebcda712a843cb60",
    "mesh_heading_list":[
        "Amyotrophic Lateral Sclerosis",
        "Biomarkers",
        "Proteomics"
    ],
    "session":2
},{
    "_id":"58c3eed3ebcda712a843cb62",
    "mesh_heading_list":[
        "Bacterial Proteins",
        "Chemotaxis",
        "Cytoplasm",
        "Escherichia coli",
        "Membrane Proteins"
    ],
    "session":3
},{
    "_id":"58c3eed3ebcda712a843cb63",
    "mesh_heading_list":[
        "Antigens, CD1",
        "Galactosylceramides",
        "Lymphocyte Activation"
    ],
    "session":2
},{
    "_id":"58c3eed3ebcda712a843cb65",
    "mesh_heading_list":[
        "Genetic Engineering",
        "Software",
        "Synthetic Biology"
    ],
    "session":4
},{
    "_id":"58c3eed3ebcda712a843cb6b",
    "mesh_heading_list":[
        "Algorithms",
        "Drosophila Proteins",
        "Drosophila melanogaster",
        "Gene Expression Profiling",
        "Gene Expression Regulation",
        "Oligonucleotide Array Sequence Analysis",
        "Signal Transduction"
    ],
    "session":1
},{
    "_id":"58c3eed3ebcda712a843cb70",
    "mesh_heading_list":[
        "Algorithms",
        "Genome",
        "Sequence Analysis, DNA"
    ],
    "session":1
},{
    "_id":"58c3eed3ebcda712a843cb76",
    "mesh_heading_list":[
        "Anti-Bacterial Agents",
        "Glucosamine",
        "Streptomyces"
    ],
    "session":0
},{
    "_id":"58c3eed3ebcda712a843cb78",
    "mesh_heading_list":[
        "GPI-Linked Proteins",
        "Membrane Glycoproteins",
        "Membrane Microdomains",
        "Protozoan Proteins",
        "Trypanosoma brucei brucei"
    ],
    "session":0
},{
    "_id":"58c3eed3ebcda712a843cb7c",
    "mesh_heading_list":[
        "Drug Delivery Systems",
        "Osteoporosis"
    ],
    "session":4
},{
    "_id":"58c3eed3ebcda712a843cb7d",
    "mesh_heading_list":[
        "Adaptation, Physiological",
        "Models, Biological",
        "Trypanosoma cruzi"
    ],
    "session":1
},{
    "_id":"58c3eed3ebcda712a843cb86",
    "mesh_heading_list":[
        "Biocompatible Materials",
        "Blood Vessel Prosthesis",
        "Polytetrafluoroethylene"
    ],
    "session":2
}]